-------------------------------------------------------------------------------
Test set: com.tiwter.week6.RobotTest
-------------------------------------------------------------------------------
Tests run: 18, Failures: 0, Errors: 0, Skipped: 0, Time elapsed: 0.001 s - in com.tiwter.week6.RobotTest
